As(g/l);Ba(mg/l);Bi(mg/l);Ca(g/l);Cl(mg/l);Fe(g/l);Fe2(g/l);Ni(g/l);Pb(mg/l);Sb(g/l);Voltaje;Temperatura;Agua;Acido;Corriente;Ag(g/t);As(%);Bi(g/t);Ca(g/t);O2(g/t);Pb(g/t);Sb(g/t);Nivel Estanque 7;Nivel Estanque 8;Corto Circuito A;Corto Circuito B;Peso Anodo
4.8;0;0;0.15;28;0.12;0.04;0.06;4;0.1;0.040950212;21.15149175;0.005074649;-0.022982593;2.5;0;0;0;0;0;0;0;-1.420252916;1.623372195;0;0;919600
10.5;1;90;0.56;192;0.25;0.26;0.32;18;0.49;14.18827058;69.07945206;9.877183914;9.570519447;38.90999985;0.007509374;0.017246095;0.000192453;9.81E-05;0.015989275;0.001015797;0.003068064;98.27225474;95.62509277;386;341;946000
